{"tracks": {"href": "https://api.spotify.com/v1/search?query=artist%3Aed&type=track&offset=0&limit=5", "items": [{"album": {"album_type": "album", "artists": [{"external_urls": {"spotify": "https://open.spotify.com/artist/6eUKZXaKkcviH0Ku9w2n3V"}, "href": "https://api.spotify.com/v1/artists/6eUKZXaKkcviH0Ku9w2n3V", "id": "6eUKZXaKkcviH0Ku9w2n3V", "name": "Ed Sheeran", "type": "artist", "uri": "spotify:artist:6eUKZXaKkcviH0Ku9w2n3V"}], "available_markets": ["AR", "AU", "AT", "BE", "BO", "BR", "BG", "CA", "CL", "CO", "CR", "CY", "CZ", "DK", "DO", "DE", "EC", "EE", "SV", "FI", "FR", "GR", "GT", "HN", "HK", "HU", "IS", "IE", "IT", "LV", "LT", "LU", "MY", "MT", "MX", "NL", "NZ", "NI", "NO", "PA", "PY", "PE", "PH", "PL", "PT", "SG", "SK", "ES", "SE", "CH", "TW", "TR", "UY", "US", "GB", "AD", "LI", "MC", "ID", "JP", "TH", "VN", "RO", "IL", "ZA", "SA", "AE", "BH", "QA", "OM", "KW", "EG", "MA", "DZ", "TN", "LB", "JO", "PS", "IN", "BY", "KZ", "MD", "UA", "AL", "BA", "HR", "ME", "MK", "RS", "SI", "KR", "BD", "PK", "LK", "GH", "KE", "NG", "TZ", "UG", "AG", "AM", "BS", "BB", "BZ", "BT", "BW", "BF", "CV", "CW", "DM", "FJ", "GM", "GE", "GD", "GW", "GY", "HT", "JM", "KI", "LS", "LR", "MW", "MV", "ML", "MH", "FM", "NA", "NR", "NE", "PW", "PG", "PR", "WS", "SM", "ST", "SN", "SC", "SL", "SB", "KN", "LC", "VC", "SR", "TL", "TO", "TT", "TV", "VU", "AZ", "BN", "BI", "KH", "CM", "TD", "KM", "GQ", "SZ", "GA", "GN", "KG", "LA", "MO", "MR", "MN", "NP", "RW", "TG", "UZ", "ZW", "BJ", "MG", "MU", "MZ", "AO", "CI", "DJ", "ZM", "CD", "CG", "IQ", "LY", "TJ", "VE", "ET", "XK"], "external_urls": {"spotify": "https://open.spotify.com/album/32iAEBstCjauDhyKpGjTuq"}, "href": "https://api.spotify.com/v1/albums/32iAEBstCjauDhyKpGjTuq", "id": "32iAEBstCjauDhyKpGjTuq", "images": [{"height": 640, "url": "https://i.scdn.co/image/ab67616d0000b273ef24c3fdbf856340d55cfeb2", "width": 640}, {"height": 300, "url": "https://i.scdn.co/image/ab67616d00001e02ef24c3fdbf856340d55cfeb2", "width": 300}, {"height": 64, "url": "https://i.scdn.co/image/ab67616d00004851ef24c3fdbf856340d55cfeb2", "width": 64}], "name": "=", "release_date": "2021-10-25", "release_date_precision": "day", "total_tracks": 14, "type": "album", "uri": "spotify:album:32iAEBstCjauDhyKpGjTuq"}, "artists": [{"external_urls": {"spotify": "https://open.spotify.com/artist/6eUKZXaKkcviH0Ku9w2n3V"}, "href": "https://api.spotify.com/v1/artists/6eUKZXaKkcviH0Ku9w2n3V", "id": "6eUKZXaKkcviH0Ku9w2n3V", "name": "Ed Sheeran", "type": "artist", "uri": "spotify:artist:6eUKZXaKkcviH0Ku9w2n3V"}], "available_markets": ["AR", "AU", "AT", "BE", "BO", "BR", "BG", "CA", "CL", "CO", "CR", "CY", "CZ", "DK", "DO", "DE", "EC", "EE", "SV", "FI", "FR", "GR", "GT", "HN", "HK", "HU", "IS", "IE", "IT", "LV", "LT", "LU", "MY", "MT", "MX", "NL", "NZ", "NI", "NO", "PA", "PY", "PE", "PH", "PL", "PT", "SG", "SK", "ES", "SE", "CH", "TW", "TR", "UY", "US", "GB", "AD", "LI", "MC", "ID", "JP", "TH", "VN", "RO", "IL", "ZA", "SA", "AE", "BH", "QA", "OM", "KW", "EG", "MA", "DZ", "TN", "LB", "JO", "PS", "IN", "BY", "KZ", "MD", "UA", "AL", "BA", "HR", "ME", "MK", "RS", "SI", "KR", "BD", "PK", "LK", "GH", "KE", "NG", "TZ", "UG", "AG", "AM", "BS", "BB", "BZ", "BT", "BW", "BF", "CV", "CW", "DM", "FJ", "GM", "GE", "GD", "GW", "GY", "HT", "JM", "KI", "LS", "LR", "MW", "MV", "ML", "MH", "FM", "NA", "NR", "NE", "PW", "PG", "PR", "WS", "SM", "ST", "SN", "SC", "SL", "SB", "KN", "LC", "VC", "SR", "TL", "TO", "TT", "TV", "VU", "AZ", "BN", "BI", "KH", "CM", "TD", "KM", "GQ", "SZ", "GA", "GN", "KG", "LA", "MO", "MR", "MN", "NP", "RW", "TG", "UZ", "ZW", "BJ", "MG", "MU", "MZ", "AO", "CI", "DJ", "ZM", "CD", "CG", "IQ", "LY", "TJ", "VE", "ET", "XK"], "disc_number": 1, "duration_ms": 207853, "explicit": false, "external_ids": {"isrc": "GBAHS2100671"}, "external_urls": {"spotify": "https://open.spotify.com/track/50nfwKoDiSYg8zOCREWAm5"}, "href": "https://api.spotify.com/v1/tracks/50nfwKoDiSYg8zOCREWAm5", "id": "50nfwKoDiSYg8zOCREWAm5", "is_local": false, "name": "Shivers", "popularity": 83, "preview_url": "https://p.scdn.co/mp3-preview/08cec59d36ac30ae9ce1e2944f206251859844af?cid=c33069cd13fb49b6b05856be25c4a024", "track_number": 2, "type": "track", "uri": "spotify:track:50nfwKoDiSYg8zOCREWAm5"}, {"album": {"album_type": "album", "artists": [{"external_urls": {"spotify": "https://open.spotify.com/artist/6eUKZXaKkcviH0Ku9w2n3V"}, "href": "https://api.spotify.com/v1/artists/6eUKZXaKkcviH0Ku9w2n3V", "id": "6eUKZXaKkcviH0Ku9w2n3V", "name": "Ed Sheeran", "type": "artist", "uri": "spotify:artist:6eUKZXaKkcviH0Ku9w2n3V"}], "available_markets": ["AR", "AU", "AT", "BE", "BO", "BR", "BG", "CA", "CL", "CO", "CR", "CY", "CZ", "DK", "DO", "DE", "EC", "EE", "SV", "FI", "FR", "GR", "GT", "HN", "HK", "HU", "IS", "IE", "IT", "LV", "LT", "LU", "MY", "MT", "MX", "NL", "NZ", "NI", "NO", "PA", "PY", "PE", "PH", "PL", "PT", "SG", "SK", "ES", "SE", "CH", "TW", "TR", "UY", "US", "GB", "AD", "LI", "MC", "ID", "JP", "TH", "VN", "RO", "IL", "ZA", "SA", "AE", "BH", "QA", "OM", "KW", "EG", "MA", "DZ", "TN", "LB", "JO", "PS", "IN", "BY", "KZ", "MD", "UA", "AL", "BA", "HR", "ME", "MK", "RS", "SI", "KR", "BD", "PK", "LK", "GH", "KE", "NG", "TZ", "UG", "AG", "AM", "BS", "BB", "BZ", "BT", "BW", "BF", "CV", "CW", "DM", "FJ", "GM", "GE", "GD", "GW", "GY", "HT", "JM", "KI", "LS", "LR", "MW", "MV", "ML", "MH", "FM", "NA", "NR", "NE", "PW", "PG", "WS", "SM", "ST", "SN", "SC", "SL", "SB", "KN", "LC", "VC", "SR", "TL", "TO", "TT", "TV", "VU", "AZ", "BN", "BI", "KH", "CM", "TD", "KM", "GQ", "SZ", "GA", "GN", "KG", "LA", "MO", "MR", "MN", "NP", "RW", "TG", "UZ", "ZW", "BJ", "MG", "MU", "MZ", "AO", "CI", "DJ", "ZM", "CD", "CG", "IQ", "LY", "TJ", "VE", "ET", "XK"], "external_urls": {"spotify": "https://open.spotify.com/album/3T4tUhGYeRNVUGevb0wThu"}, "href": "https://api.spotify.com/v1/albums/3T4tUhGYeRNVUGevb0wThu", "id": "3T4tUhGYeRNVUGevb0wThu", "images": [{"height": 640, "url": "https://i.scdn.co/image/ab67616d0000b273ba5db46f4b838ef6027e6f96", "width": 640}, {"height": 300, "url": "https://i.scdn.co/image/ab67616d00001e02ba5db46f4b838ef6027e6f96", "width": 300}, {"height": 64, "url": "https://i.scdn.co/image/ab67616d00004851ba5db46f4b838ef6027e6f96", "width": 64}], "name": "\u00f7 (Deluxe)", "release_date": "2017-03-03", "release_date_precision": "day", "total_tracks": 16, "type": "album", "uri": "spotify:album:3T4tUhGYeRNVUGevb0wThu"}, "artists": [{"external_urls": {"spotify": "https://open.spotify.com/artist/6eUKZXaKkcviH0Ku9w2n3V"}, "href": "https://api.spotify.com/v1/artists/6eUKZXaKkcviH0Ku9w2n3V", "id": "6eUKZXaKkcviH0Ku9w2n3V", "name": "Ed Sheeran", "type": "artist", "uri": "spotify:artist:6eUKZXaKkcviH0Ku9w2n3V"}], "available_markets": ["AR", "AU", "AT", "BE", "BO", "BR", "BG", "CA", "CL", "CO", "CR", "CY", "CZ", "DK", "DO", "DE", "EC", "EE", "SV", "FI", "FR", "GR", "GT", "HN", "HK", "HU", "IS", "IE", "IT", "LV", "LT", "LU", "MY", "MT", "MX", "NL", "NZ", "NI", "NO", "PA", "PY", "PE", "PH", "PL", "PT", "SG", "SK", "ES", "SE", "CH", "TW", "TR", "UY", "US", "GB", "AD", "LI", "MC", "ID", "JP", "TH", "VN", "RO", "IL", "ZA", "SA", "AE", "BH", "QA", "OM", "KW", "EG", "MA", "DZ", "TN", "LB", "JO", "PS", "IN", "BY", "KZ", "MD", "UA", "AL", "BA", "HR", "ME", "MK", "RS", "SI", "KR", "BD", "PK", "LK", "GH", "KE", "NG", "TZ", "UG", "AG", "AM", "BS", "BB", "BZ", "BT", "BW", "BF", "CV", "CW", "DM", "FJ", "GM", "GE", "GD", "GW", "GY", "HT", "JM", "KI", "LS", "LR", "MW", "MV", "ML", "MH", "FM", "NA", "NR", "NE", "PW", "PG", "WS", "SM", "ST", "SN", "SC", "SL", "SB", "KN", "LC", "VC", "SR", "TL", "TO", "TT", "TV", "VU", "AZ", "BN", "BI", "KH", "CM", "TD", "KM", "GQ", "SZ", "GA", "GN", "KG", "LA", "MO", "MR", "MN", "NP", "RW", "TG", "UZ", "ZW", "BJ", "MG", "MU", "MZ", "AO", "CI", "DJ", "ZM", "CD", "CG", "IQ", "LY", "TJ", "VE", "ET", "XK"], "disc_number": 1, "duration_ms": 263400, "explicit": false, "external_ids": {"isrc": "GBAHS1700024"}, "external_urls": {"spotify": "https://open.spotify.com/track/0tgVpDi06FyKpA1z0VMD4v"}, "href": "https://api.spotify.com/v1/tracks/0tgVpDi06FyKpA1z0VMD4v", "id": "0tgVpDi06FyKpA1z0VMD4v", "is_local": false, "name": "Perfect", "popularity": 86, "preview_url": "https://p.scdn.co/mp3-preview/4e30857a3c7da3f8891483643e310bb233afadd2?cid=c33069cd13fb49b6b05856be25c4a024", "track_number": 5, "type": "track", "uri": "spotify:track:0tgVpDi06FyKpA1z0VMD4v"}, {"album": {"album_type": "album", "artists": [{"external_urls": {"spotify": "https://open.spotify.com/artist/6eUKZXaKkcviH0Ku9w2n3V"}, "href": "https://api.spotify.com/v1/artists/6eUKZXaKkcviH0Ku9w2n3V", "id": "6eUKZXaKkcviH0Ku9w2n3V", "name": "Ed Sheeran", "type": "artist", "uri": "spotify:artist:6eUKZXaKkcviH0Ku9w2n3V"}], "available_markets": ["AR", "AU", "AT", "BE", "BO", "BR", "BG", "CA", "CL", "CO", "CR", "CY", "CZ", "DK", "DO", "DE", "EC", "EE", "SV", "FI", "FR", "GR", "GT", "HN", "HK", "HU", "IS", "IE", "IT", "LV", "LT", "LU", "MY", "MT", "MX", "NL", "NZ", "NI", "NO", "PA", "PY", "PE", "PH", "PL", "PT", "SG", "SK", "ES", "SE", "CH", "TW", "TR", "UY", "US", "GB", "AD", "LI", "MC", "ID", "JP", "TH", "VN", "RO", "IL", "ZA", "SA", "AE", "BH", "QA", "OM", "KW", "EG", "MA", "DZ", "TN", "LB", "JO", "PS", "IN", "BY", "KZ", "MD", "UA", "AL", "BA", "HR", "ME", "MK", "RS", "SI", "KR", "BD", "PK", "LK", "GH", "KE", "NG", "TZ", "UG", "AG", "AM", "BS", "BB", "BZ", "BT", "BW", "BF", "CV", "CW", "DM", "FJ", "GM", "GE", "GD", "GW", "GY", "HT", "JM", "KI", "LS", "LR", "MW", "MV", "ML", "MH", "FM", "NA", "NR", "NE", "PW", "PG", "WS", "SM", "ST", "SN", "SC", "SL", "SB", "KN", "LC", "VC", "SR", "TL", "TO", "TT", "TV", "VU", "AZ", "BN", "BI", "KH", "CM", "TD", "KM", "GQ", "SZ", "GA", "GN", "KG", "LA", "MO", "MR", "MN", "NP", "RW", "TG", "UZ", "ZW", "BJ", "MG", "MU", "MZ", "AO", "CI", "DJ", "ZM", "CD", "CG", "IQ", "LY", "TJ", "VE", "ET", "XK"], "external_urls": {"spotify": "https://open.spotify.com/album/3T4tUhGYeRNVUGevb0wThu"}, "href": "https://api.spotify.com/v1/albums/3T4tUhGYeRNVUGevb0wThu", "id": "3T4tUhGYeRNVUGevb0wThu", "images": [{"height": 640, "url": "https://i.scdn.co/image/ab67616d0000b273ba5db46f4b838ef6027e6f96", "width": 640}, {"height": 300, "url": "https://i.scdn.co/image/ab67616d00001e02ba5db46f4b838ef6027e6f96", "width": 300}, {"height": 64, "url": "https://i.scdn.co/image/ab67616d00004851ba5db46f4b838ef6027e6f96", "width": 64}], "name": "\u00f7 (Deluxe)", "release_date": "2017-03-03", "release_date_precision": "day", "total_tracks": 16, "type": "album", "uri": "spotify:album:3T4tUhGYeRNVUGevb0wThu"}, "artists": [{"external_urls": {"spotify": "https://open.spotify.com/artist/6eUKZXaKkcviH0Ku9w2n3V"}, "href": "https://api.spotify.com/v1/artists/6eUKZXaKkcviH0Ku9w2n3V", "id": "6eUKZXaKkcviH0Ku9w2n3V", "name": "Ed Sheeran", "type": "artist", "uri": "spotify:artist:6eUKZXaKkcviH0Ku9w2n3V"}], "available_markets": ["AR", "AU", "AT", "BE", "BO", "BR", "BG", "CA", "CL", "CO", "CR", "CY", "CZ", "DK", "DO", "DE", "EC", "EE", "SV", "FI", "FR", "GR", "GT", "HN", "HK", "HU", "IS", "IE", "IT", "LV", "LT", "LU", "MY", "MT", "MX", "NL", "NZ", "NI", "NO", "PA", "PY", "PE", "PH", "PL", "PT", "SG", "SK", "ES", "SE", "CH", "TW", "TR", "UY", "US", "GB", "AD", "LI", "MC", "ID", "JP", "TH", "VN", "RO", "IL", "ZA", "SA", "AE", "BH", "QA", "OM", "KW", "EG", "MA", "DZ", "TN", "LB", "JO", "PS", "IN", "BY", "KZ", "MD", "UA", "AL", "BA", "HR", "ME", "MK", "RS", "SI", "KR", "BD", "PK", "LK", "GH", "KE", "NG", "TZ", "UG", "AG", "AM", "BS", "BB", "BZ", "BT", "BW", "BF", "CV", "CW", "DM", "FJ", "GM", "GE", "GD", "GW", "GY", "HT", "JM", "KI", "LS", "LR", "MW", "MV", "ML", "MH", "FM", "NA", "NR", "NE", "PW", "PG", "WS", "SM", "ST", "SN", "SC", "SL", "SB", "KN", "LC", "VC", "SR", "TL", "TO", "TT", "TV", "VU", "AZ", "BN", "BI", "KH", "CM", "TD", "KM", "GQ", "SZ", "GA", "GN", "KG", "LA", "MO", "MR", "MN", "NP", "RW", "TG", "UZ", "ZW", "BJ", "MG", "MU", "MZ", "AO", "CI", "DJ", "ZM", "CD", "CG", "IQ", "LY", "TJ", "VE", "ET", "XK"], "disc_number": 1, "duration_ms": 233712, "explicit": false, "external_ids": {"isrc": "GBAHS1600463"}, "external_urls": {"spotify": "https://open.spotify.com/track/7qiZfU4dY1lWllzX7mPBI3"}, "href": "https://api.spotify.com/v1/tracks/7qiZfU4dY1lWllzX7mPBI3", "id": "7qiZfU4dY1lWllzX7mPBI3", "is_local": false, "name": "Shape of You", "popularity": 86, "preview_url": "https://p.scdn.co/mp3-preview/7339548839a263fd721d01eb3364a848cad16fa7?cid=c33069cd13fb49b6b05856be25c4a024", "track_number": 4, "type": "track", "uri": "spotify:track:7qiZfU4dY1lWllzX7mPBI3"}, {"album": {"album_type": "album", "artists": [{"external_urls": {"spotify": "https://open.spotify.com/artist/7giUHu5pv6YTZgSkxxCcgh"}, "href": "https://api.spotify.com/v1/artists/7giUHu5pv6YTZgSkxxCcgh", "id": "7giUHu5pv6YTZgSkxxCcgh", "name": "Edward Sharpe & The Magnetic Zeros", "type": "artist", "uri": "spotify:artist:7giUHu5pv6YTZgSkxxCcgh"}], "available_markets": ["AR", "AU", "AT", "BE", "BO", "BR", "BG", "CA", "CL", "CO", "CR", "CY", "CZ", "DK", "DO", "DE", "EC", "EE", "SV", "FI", "FR", "GR", "GT", "HN", "HK", "HU", "IS", "IE", "IT", "LV", "LT", "LU", "MY", "MT", "MX", "NL", "NZ", "NI", "NO", "PA", "PY", "PE", "PH", "PL", "PT", "SG", "SK", "ES", "SE", "CH", "TW", "TR", "UY", "US", "GB", "AD", "LI", "MC", "ID", "JP", "TH", "VN", "RO", "IL", "ZA", "SA", "AE", "BH", "QA", "OM", "KW", "EG", "MA", "DZ", "TN", "LB", "JO", "PS", "IN", "BY", "KZ", "MD", "UA", "AL", "BA", "HR", "ME", "MK", "RS", "SI", "KR", "BD", "PK", "LK", "GH", "KE", "NG", "TZ", "UG", "AG", "AM", "BS", "BB", "BZ", "BT", "BW", "BF", "CV", "CW", "DM", "FJ", "GM", "GE", "GD", "GW", "GY", "HT", "JM", "KI", "LS", "LR", "MW", "MV", "ML", "MH", "FM", "NA", "NR", "NE", "PW", "PG", "PR", "WS", "SM", "ST", "SN", "SC", "SL", "SB", "KN", "LC", "VC", "SR", "TL", "TO", "TT", "TV", "VU", "AZ", "BN", "BI", "KH", "CM", "TD", "KM", "GQ", "SZ", "GA", "GN", "KG", "LA", "MO", "MR", "MN", "NP", "RW", "TG", "UZ", "ZW", "BJ", "MG", "MU", "MZ", "AO", "CI", "DJ", "ZM", "CD", "CG", "IQ", "LY", "TJ", "VE", "ET", "XK"], "external_urls": {"spotify": "https://open.spotify.com/album/6O1fjOpSZ3TvDgpxIXg9ZV"}, "href": "https://api.spotify.com/v1/albums/6O1fjOpSZ3TvDgpxIXg9ZV", "id": "6O1fjOpSZ3TvDgpxIXg9ZV", "images": [{"height": 640, "url": "https://i.scdn.co/image/ab67616d0000b273b135a1451936b0d93cd8c988", "width": 640}, {"height": 300, "url": "https://i.scdn.co/image/ab67616d00001e02b135a1451936b0d93cd8c988", "width": 300}, {"height": 64, "url": "https://i.scdn.co/image/ab67616d00004851b135a1451936b0d93cd8c988", "width": 64}], "name": "Up From Below - 10th Anniversary Edition", "release_date": "2009-07-07", "release_date_precision": "day", "total_tracks": 13, "type": "album", "uri": "spotify:album:6O1fjOpSZ3TvDgpxIXg9ZV"}, "artists": [{"external_urls": {"spotify": "https://open.spotify.com/artist/7giUHu5pv6YTZgSkxxCcgh"}, "href": "https://api.spotify.com/v1/artists/7giUHu5pv6YTZgSkxxCcgh", "id": "7giUHu5pv6YTZgSkxxCcgh", "name": "Edward Sharpe & The Magnetic Zeros", "type": "artist", "uri": "spotify:artist:7giUHu5pv6YTZgSkxxCcgh"}], "available_markets": ["AR", "AU", "AT", "BE", "BO", "BR", "BG", "CA", "CL", "CO", "CR", "CY", "CZ", "DK", "DO", "DE", "EC", "EE", "SV", "FI", "FR", "GR", "GT", "HN", "HK", "HU", "IS", "IE", "IT", "LV", "LT", "LU", "MY", "MT", "MX", "NL", "NZ", "NI", "NO", "PA", "PY", "PE", "PH", "PL", "PT", "SG", "SK", "ES", "SE", "CH", "TW", "TR", "UY", "US", "GB", "AD", "LI", "MC", "ID", "JP", "TH", "VN", "RO", "IL", "ZA", "SA", "AE", "BH", "QA", "OM", "KW", "EG", "MA", "DZ", "TN", "LB", "JO", "PS", "IN", "BY", "KZ", "MD", "UA", "AL", "BA", "HR", "ME", "MK", "RS", "SI", "KR", "BD", "PK", "LK", "GH", "KE", "NG", "TZ", "UG", "AG", "AM", "BS", "BB", "BZ", "BT", "BW", "BF", "CV", "CW", "DM", "FJ", "GM", "GE", "GD", "GW", "GY", "HT", "JM", "KI", "LS", "LR", "MW", "MV", "ML", "MH", "FM", "NA", "NR", "NE", "PW", "PG", "PR", "WS", "SM", "ST", "SN", "SC", "SL", "SB", "KN", "LC", "VC", "SR", "TL", "TO", "TT", "TV", "VU", "AZ", "BN", "BI", "KH", "CM", "TD", "KM", "GQ", "SZ", "GA", "GN", "KG", "LA", "MO", "MR", "MN", "NP", "RW", "TG", "UZ", "ZW", "BJ", "MG", "MU", "MZ", "AO", "CI", "DJ", "ZM", "CD", "CG", "IQ", "LY", "TJ", "VE", "ET", "XK"], "disc_number": 1, "duration_ms": 306373, "explicit": false, "external_ids": {"isrc": "QMRSZ1901643"}, "external_urls": {"spotify": "https://open.spotify.com/track/5m1x4QRgaKmK8cTkZQjGRr"}, "href": "https://api.spotify.com/v1/tracks/5m1x4QRgaKmK8cTkZQjGRr", "id": "5m1x4QRgaKmK8cTkZQjGRr", "is_local": false, "name": "Home - 2019 Remaster", "popularity": 75, "preview_url": "https://p.scdn.co/mp3-preview/b8a48c9017fc42f0c350474597feee4aab7d2f70?cid=c33069cd13fb49b6b05856be25c4a024", "track_number": 6, "type": "track", "uri": "spotify:track:5m1x4QRgaKmK8cTkZQjGRr"}, {"album": {"album_type": "album", "artists": [{"external_urls": {"spotify": "https://open.spotify.com/artist/6eUKZXaKkcviH0Ku9w2n3V"}, "href": "https://api.spotify.com/v1/artists/6eUKZXaKkcviH0Ku9w2n3V", "id": "6eUKZXaKkcviH0Ku9w2n3V", "name": "Ed Sheeran", "type": "artist", "uri": "spotify:artist:6eUKZXaKkcviH0Ku9w2n3V"}], "available_markets": ["AR", "AU", "AT", "BE", "BO", "BR", "BG", "CA", "CL", "CO", "CR", "CY", "CZ", "DK", "DO", "DE", "EC", "EE", "SV", "FI", "FR", "GR", "GT", "HN", "HK", "HU", "IS", "IE", "IT", "LV", "LT", "LU", "MY", "MT", "MX", "NL", "NZ", "NI", "NO", "PA", "PY", "PE", "PH", "PL", "PT", "SG", "SK", "ES", "SE", "CH", "TW", "TR", "UY", "US", "GB", "AD", "LI", "MC", "ID", "JP", "TH", "VN", "RO", "IL", "ZA", "SA", "AE", "BH", "QA", "OM", "KW", "EG", "MA", "DZ", "TN", "LB", "JO", "PS", "IN", "BY", "KZ", "MD", "UA", "AL", "BA", "HR", "ME", "MK", "RS", "SI", "KR", "BD", "PK", "LK", "GH", "KE", "NG", "TZ", "UG", "AG", "AM", "BS", "BB", "BZ", "BT", "BW", "BF", "CV", "CW", "DM", "FJ", "GM", "GE", "GD", "GW", "GY", "HT", "JM", "KI", "LS", "LR", "MW", "MV", "ML", "MH", "FM", "NA", "NR", "NE", "PW", "PG", "PR", "WS", "SM", "ST", "SN", "SC", "SL", "SB", "KN", "LC", "VC", "SR", "TL", "TO", "TT", "TV", "VU", "AZ", "BN", "BI", "KH", "CM", "TD", "KM", "GQ", "SZ", "GA", "GN", "KG", "LA", "MO", "MR", "MN", "NP", "RW", "TG", "UZ", "ZW", "BJ", "MG", "MU", "MZ", "AO", "CI", "DJ", "ZM", "CD", "CG", "IQ", "LY", "TJ", "VE", "ET", "XK"], "external_urls": {"spotify": "https://open.spotify.com/album/32iAEBstCjauDhyKpGjTuq"}, "href": "https://api.spotify.com/v1/albums/32iAEBstCjauDhyKpGjTuq", "id": "32iAEBstCjauDhyKpGjTuq", "images": [{"height": 640, "url": "https://i.scdn.co/image/ab67616d0000b273ef24c3fdbf856340d55cfeb2", "width": 640}, {"height": 300, "url": "https://i.scdn.co/image/ab67616d00001e02ef24c3fdbf856340d55cfeb2", "width": 300}, {"height": 64, "url": "https://i.scdn.co/image/ab67616d00004851ef24c3fdbf856340d55cfeb2", "width": 64}], "name": "=", "release_date": "2021-10-25", "release_date_precision": "day", "total_tracks": 14, "type": "album", "uri": "spotify:album:32iAEBstCjauDhyKpGjTuq"}, "artists": [{"external_urls": {"spotify": "https://open.spotify.com/artist/6eUKZXaKkcviH0Ku9w2n3V"}, "href": "https://api.spotify.com/v1/artists/6eUKZXaKkcviH0Ku9w2n3V", "id": "6eUKZXaKkcviH0Ku9w2n3V", "name": "Ed Sheeran", "type": "artist", "uri": "spotify:artist:6eUKZXaKkcviH0Ku9w2n3V"}], "available_markets": ["AR", "AU", "AT", "BE", "BO", "BR", "BG", "CA", "CL", "CO", "CR", "CY", "CZ", "DK", "DO", "DE", "EC", "EE", "SV", "FI", "FR", "GR", "GT", "HN", "HK", "HU", "IS", "IE", "IT", "LV", "LT", "LU", "MY", "MT", "MX", "NL", "NZ", "NI", "NO", "PA", "PY", "PE", "PH", "PL", "PT", "SG", "SK", "ES", "SE", "CH", "TW", "TR", "UY", "US", "GB", "AD", "LI", "MC", "ID", "JP", "TH", "VN", "RO", "IL", "ZA", "SA", "AE", "BH", "QA", "OM", "KW", "EG", "MA", "DZ", "TN", "LB", "JO", "PS", "IN", "BY", "KZ", "MD", "UA", "AL", "BA", "HR", "ME", "MK", "RS", "SI", "KR", "BD", "PK", "LK", "GH", "KE", "NG", "TZ", "UG", "AG", "AM", "BS", "BB", "BZ", "BT", "BW", "BF", "CV", "CW", "DM", "FJ", "GM", "GE", "GD", "GW", "GY", "HT", "JM", "KI", "LS", "LR", "MW", "MV", "ML", "MH", "FM", "NA", "NR", "NE", "PW", "PG", "PR", "WS", "SM", "ST", "SN", "SC", "SL", "SB", "KN", "LC", "VC", "SR", "TL", "TO", "TT", "TV", "VU", "AZ", "BN", "BI", "KH", "CM", "TD", "KM", "GQ", "SZ", "GA", "GN", "KG", "LA", "MO", "MR", "MN", "NP", "RW", "TG", "UZ", "ZW", "BJ", "MG", "MU", "MZ", "AO", "CI", "DJ", "ZM", "CD", "CG", "IQ", "LY", "TJ", "VE", "ET", "XK"], "disc_number": 1, "duration_ms": 230746, "explicit": false, "external_ids": {"isrc": "GBAHS2100318"}, "external_urls": {"spotify": "https://open.spotify.com/track/3rmo8F54jFF8OgYsqTxm5d"}, "href": "https://api.spotify.com/v1/tracks/3rmo8F54jFF8OgYsqTxm5d", "id": "3rmo8F54jFF8OgYsqTxm5d", "is_local": false, "name": "Bad Habits", "popularity": 79, "preview_url": "https://p.scdn.co/mp3-preview/22f3a86c8a83e364db595007f9ac1d666596a335?cid=c33069cd13fb49b6b05856be25c4a024", "track_number": 4, "type": "track", "uri": "spotify:track:3rmo8F54jFF8OgYsqTxm5d"}], "limit": 5, "next": "https://api.spotify.com/v1/search?query=artist%3Aed&type=track&offset=5&limit=5", "offset": 0, "previous": null, "total": 100}}